{
    "test": {
        "awscloudformation": {
            "AuthRoleName": "myamplifyproject-test-20191015101911-authRole",
            "UnauthRoleArn": "arn:aws:iam::707833525144:role/myamplifyproject-test-20191015101911-unauthRole",
            "AuthRoleArn": "arn:aws:iam::707833525144:role/myamplifyproject-test-20191015101911-authRole",
            "Region": "us-east-1",
            "DeploymentBucketName": "myamplifyproject-test-20191015101911-deployment",
            "UnauthRoleName": "myamplifyproject-test-20191015101911-unauthRole",
            "StackName": "myamplifyproject-test-20191015101911",
            "StackId": "arn:aws:cloudformation:us-east-1:707833525144:stack/myamplifyproject-test-20191015101911/3b93adf0-ef35-11e9-b18e-0e05d1a3c102"
        },
        "categories": {
            "auth": {
                "myamplifyproject11475b7a": {}
            }
        }
    }
}